^C:\USERS\DINOMIC\DESKTOP\ĐỒ HOẠ\ADDLIB\ADDLIB\DEBUG\BEZIER.OBJ|C:\USERS\DINOMIC\DESKTOP\ĐỒ HOẠ\ADDLIB\ADDLIB\DEBUG\CIRCLE.OBJ|C:\USERS\DINOMIC\DESKTOP\ĐỒ HOẠ\ADDLIB\ADDLIB\DEBUG\CLIPPING.OBJ|C:\USERS\DINOMIC\DESKTOP\ĐỒ HOẠ\ADDLIB\ADDLIB\DEBUG\DRAWPOLYGON.OBJ|C:\USERS\DINOMIC\DESKTOP\ĐỒ HOẠ\ADDLIB\ADDLIB\DEBUG\ELLIPSE.OBJ|C:\USERS\DINOMIC\DESKTOP\ĐỒ HOẠ\ADDLIB\ADDLIB\DEBUG\FILLCOLOR.OBJ|C:\USERS\DINOMIC\DESKTOP\ĐỒ HOẠ\ADDLIB\ADDLIB\DEBUG\LINE.OBJ|C:\USERS\DINOMIC\DESKTOP\ĐỒ HOẠ\ADDLIB\ADDLIB\DEBUG\MAIN.OBJ|C:\USERS\DINOMIC\DESKTOP\ĐỒ HOẠ\ADDLIB\ADDLIB\DEBUG\PARABOL.OBJ
C:\USERS\DINOMIC\DESKTOP\đồ HOạ\ADDLIB\DEBUG\ADDLIB.EXE
C:\USERS\DINOMIC\DESKTOP\đồ HOạ\ADDLIB\DEBUG\ADDLIB.ILK
C:\USERS\DINOMIC\DESKTOP\ĐỒ HOẠ\ADDLIB\DEBUG\ADDLIB.PDB
^C:\USERS\DINOMIC\DESKTOP\16521102_CG\ADDLIB\ADDLIB\DEBUG\BEZIER.OBJ|C:\USERS\DINOMIC\DESKTOP\16521102_CG\ADDLIB\ADDLIB\DEBUG\CIRCLE.OBJ|C:\USERS\DINOMIC\DESKTOP\16521102_CG\ADDLIB\ADDLIB\DEBUG\CLIPPING.OBJ|C:\USERS\DINOMIC\DESKTOP\16521102_CG\ADDLIB\ADDLIB\DEBUG\DRAWPOLYGON.OBJ|C:\USERS\DINOMIC\DESKTOP\16521102_CG\ADDLIB\ADDLIB\DEBUG\ELLIPSE.OBJ|C:\USERS\DINOMIC\DESKTOP\16521102_CG\ADDLIB\ADDLIB\DEBUG\FILLCOLOR.OBJ|C:\USERS\DINOMIC\DESKTOP\16521102_CG\ADDLIB\ADDLIB\DEBUG\LINE.OBJ|C:\USERS\DINOMIC\DESKTOP\16521102_CG\ADDLIB\ADDLIB\DEBUG\MAIN.OBJ|C:\USERS\DINOMIC\DESKTOP\16521102_CG\ADDLIB\ADDLIB\DEBUG\PARABOL.OBJ
C:\USERS\DINOMIC\DESKTOP\16521102_CG\ADDLIB\DEBUG\ADDLIB.EXE
C:\USERS\DINOMIC\DESKTOP\16521102_CG\ADDLIB\DEBUG\ADDLIB.ILK
C:\USERS\DINOMIC\DESKTOP\16521102_CG\ADDLIB\DEBUG\ADDLIB.PDB
