^C:\USERS\DINOMIC\DESKTOP\16521102_CG\ADDLIB\ADDLIB\DEBUG\BEZIER.OBJ|C:\USERS\DINOMIC\DESKTOP\16521102_CG\ADDLIB\ADDLIB\DEBUG\CIRCLE.OBJ|C:\USERS\DINOMIC\DESKTOP\16521102_CG\ADDLIB\ADDLIB\DEBUG\CLIPPING.OBJ|C:\USERS\DINOMIC\DESKTOP\16521102_CG\ADDLIB\ADDLIB\DEBUG\DRAWPOLYGON.OBJ|C:\USERS\DINOMIC\DESKTOP\16521102_CG\ADDLIB\ADDLIB\DEBUG\ELLIPSE.OBJ|C:\USERS\DINOMIC\DESKTOP\16521102_CG\ADDLIB\ADDLIB\DEBUG\FILLCOLOR.OBJ|C:\USERS\DINOMIC\DESKTOP\16521102_CG\ADDLIB\ADDLIB\DEBUG\LINE.OBJ|C:\USERS\DINOMIC\DESKTOP\16521102_CG\ADDLIB\ADDLIB\DEBUG\MAIN.OBJ|C:\USERS\DINOMIC\DESKTOP\16521102_CG\ADDLIB\ADDLIB\DEBUG\PARABOL.OBJ
C:\WINDOWS\GLOBALIZATION\SORTING\SORTDEFAULT.NLS
B:\USERS\SDL\LIB\WIN32\SDL2.LIB
B:\USERS\SDL\LIB\WIN32\SDL2MAIN.LIB
C:\PROGRAM FILES (X86)\WINDOWS KITS\10\LIB\10.0.16299.0\UM\X86\KERNEL32.LIB
C:\PROGRAM FILES (X86)\WINDOWS KITS\10\LIB\10.0.16299.0\UM\X86\USER32.LIB
C:\PROGRAM FILES (X86)\WINDOWS KITS\10\LIB\10.0.16299.0\UM\X86\GDI32.LIB
C:\PROGRAM FILES (X86)\WINDOWS KITS\10\LIB\10.0.16299.0\UM\X86\WINSPOOL.LIB
C:\PROGRAM FILES (X86)\WINDOWS KITS\10\LIB\10.0.16299.0\UM\X86\COMDLG32.LIB
C:\PROGRAM FILES (X86)\WINDOWS KITS\10\LIB\10.0.16299.0\UM\X86\ADVAPI32.LIB
C:\PROGRAM FILES (X86)\WINDOWS KITS\10\LIB\10.0.16299.0\UM\X86\SHELL32.LIB
C:\PROGRAM FILES (X86)\WINDOWS KITS\10\LIB\10.0.16299.0\UM\X86\OLE32.LIB
C:\PROGRAM FILES (X86)\WINDOWS KITS\10\LIB\10.0.16299.0\UM\X86\OLEAUT32.LIB
C:\PROGRAM FILES (X86)\WINDOWS KITS\10\LIB\10.0.16299.0\UM\X86\UUID.LIB
C:\PROGRAM FILES (X86)\WINDOWS KITS\10\LIB\10.0.16299.0\UM\X86\ODBC32.LIB
C:\PROGRAM FILES (X86)\WINDOWS KITS\10\LIB\10.0.16299.0\UM\X86\ODBCCP32.LIB
C:\USERS\DINOMIC\DESKTOP\16521102_CG\ADDLIB\ADDLIB\DEBUG\BEZIER.OBJ
C:\USERS\DINOMIC\DESKTOP\16521102_CG\ADDLIB\ADDLIB\DEBUG\CIRCLE.OBJ
C:\USERS\DINOMIC\DESKTOP\16521102_CG\ADDLIB\ADDLIB\DEBUG\CLIPPING.OBJ
C:\USERS\DINOMIC\DESKTOP\16521102_CG\ADDLIB\ADDLIB\DEBUG\DRAWPOLYGON.OBJ
C:\USERS\DINOMIC\DESKTOP\16521102_CG\ADDLIB\ADDLIB\DEBUG\ELLIPSE.OBJ
C:\USERS\DINOMIC\DESKTOP\16521102_CG\ADDLIB\ADDLIB\DEBUG\FILLCOLOR.OBJ
C:\USERS\DINOMIC\DESKTOP\16521102_CG\ADDLIB\ADDLIB\DEBUG\LINE.OBJ
C:\USERS\DINOMIC\DESKTOP\16521102_CG\ADDLIB\ADDLIB\DEBUG\MAIN.OBJ
C:\USERS\DINOMIC\DESKTOP\16521102_CG\ADDLIB\ADDLIB\DEBUG\PARABOL.OBJ
C:\WINDOWS\SYSTEM32\TZRES.DLL
B:\PROGRAM FILES (X86)\MICROSOFT VISUAL STUDIO\2017\ENTERPRISE\VC\TOOLS\MSVC\14.12.25827\LIB\X86\MSVCPRTD.LIB
B:\PROGRAM FILES (X86)\MICROSOFT VISUAL STUDIO\2017\ENTERPRISE\VC\TOOLS\MSVC\14.12.25827\LIB\X86\MSVCRTD.LIB
B:\PROGRAM FILES (X86)\MICROSOFT VISUAL STUDIO\2017\ENTERPRISE\VC\TOOLS\MSVC\14.12.25827\LIB\X86\OLDNAMES.LIB
B:\PROGRAM FILES (X86)\MICROSOFT VISUAL STUDIO\2017\ENTERPRISE\VC\TOOLS\MSVC\14.12.25827\LIB\X86\VCRUNTIMED.LIB
C:\PROGRAM FILES (X86)\WINDOWS KITS\10\LIB\10.0.16299.0\UCRT\X86\UCRTD.LIB
